<svg width="20" height="20" viewBox="0 0 20 20" xmlns="http://www.w3.org/2000/svg">
    <path fill="currentColor" d="M17.3064,19.9731 L0.2254,2.8921 C-0.0756,2.5911 
        -0.0756,2.1031 0.2254,1.8021 L1.8024,0.2261 C2.1034,-0.0759 2.5914,-0.0759 
        2.8924,0.2261 L19.9734,17.3061 C20.2744,17.6081 20.2744,18.0951 19.9734,18.3971 
        L18.3964,19.9731 C18.0954,20.2741 17.6074,20.2741 17.3064,19.9731">
    </path>
    <path fill="currentColor" d="M0.2259,17.3061 L17.3069,0.2261 C17.6069,-0.0759 18.0959,-0.0759 
        18.3959,0.2261 L19.9739,1.8021 C20.2739,2.1031 20.2739,2.5911 19.9739,2.8921 L2.8929,19.9731 
        C2.5909,20.2741 2.1029,20.2741 1.8019,19.9731 L0.2259,18.3971 C-0.0751,18.0951 -0.0751,17.6081 0.2259,17.3061">
    </path>
</svg>